{
    "kcu1500": {
        "driver": "/dev/wz-xdma0_user",
        "registers": {
            "cdr_stable": {
                "width": 1,
                "address": "0x40",
                "offset": 0,
                "metric": "gauge"
            },
            "RxByteIsAligned": {
                "width": 8,
                "address": "0x40",
                "offset": 1,
                "metric": "gauge"
            },
            "GtPowerGood": {
                "width": 8,
                "address": "0x40",
                "offset": 9,
                "metric": "gauge"
            },
            "GtTxResetDone": {
                "width": 1,
                "address": "0x40",
                "offset": 17,
                "metric": "gauge"
            },
            "GtRxResetDone": {
                "width": 1,
                "address": "0x40",
                "offset": 18,
                "metric": "gauge"
            },
            "TxPmaResetDone": {
                "width": 1,
                "address": "0x40",
                "offset": 19,
                "metric": "gauge"
            },
            "RxPmaResetDone": {
                "width": 1,
                "address": "0x40",
                "offset": 20,
                "metric": "gauge"
            },
            "GtResetTxPllDatapath": {
                "width": 1,
                "address": "0x40",
                "offset": 21,
                "metric": "gauge"
            },
            "GtResetTxDatapath": {
                "width": 1,
                "address": "0x40",
                "offset": 22,
                "metric": "gauge"
            },
            "GtResetRxDatapath": {
                "width": 1,
                "address": "0x40",
                "offset": 23,
                "metric": "gauge"
            },
            "InitDone": {
                "width": 1,
                "address": "0x40",
                "offset": 24,
                "metric": "gauge"
            },
            "FreqInput": {
                "width": 32,
                "address": "0x44",
                "offset": 0,
                "metric": "gauge"
            },
            "FillerOrbitsSeen": {
                "width": 32,
                "address": "0x48",
                "offset": 0,
                "metric": "counter"
            },
            "FillerOrbitsDropped": {
                "width": 32,
                "address": "0x4c",
                "offset": 0,
                "metric": "counter"
            },
            "AxiBackpressureSeen": {
                "width": 1,
                "address": "0x50",
                "offset": 0,
                "metric": "gauge"
            },
            "OrbitExceedsSize": {
                "width": 1,
                "address": "0x50",
                "offset": 1,
                "metric": "gauge"
            },
            "WaitingForOrbitEnd": {
                "width": 1,
                "address": "0x50",
                "offset": 2,
                "metric": "gauge"
            },
            "I2CvalueRead": {
                "width": 8,
                "address": "0x50",
                "offset": 3,
                "metric": "gauge"
            },
            "Autorealigns": {
                "width": 32,
                "address": "0x54",
                "offset": 0,
                "metric": "counter"
            },
            "OrbitLength": {
                "width": 32,
                "address": "0x58",
                "offset": 0,
                "metric": "gauge"
            }
        }
    }
}
